t;predator;prey
0,0;4,0;2,0
0,03003003003003003;3,8710116660254763;2,184407176672491
0,06006006006006006;3,725074670490059;2,3759811810083917
0,09009009009009009;3,5637922642293502;2,5724502970204965
0,12012012012012012;3,389298875810281;2,7711422817841442
0,15015015015015015;3,204184928198759;2,969085161047636
0,18018018018018017;3,0113804439560004;3,1631426568710386
0,21021021021021022;2,8140076559504035;3,3501722504226192
0,24024024024024024;2,615217978566493;3,527189241298248
0,2702702702702703;2,418031302040021;3,691518843392106
0,3003003003003003;2,2251943938110323;3,8409203672656607
0,3303303303303303;2,0390717899652557;3,973671974417721
0,36036036036036034;1,8615767429584666;4,088610828389404
0,39039039039039036;1,6941431382096166;4,1851302485167885
0,42042042042042044;1,5377343812459205;4,263140287130139
0,45045045045045046;1,3928812991314363;4,3230016333761885
0,4804804804804805;1,2597394870844612;4,3654437626728875
0,5105105105105106;1,1381567493321516;4,39147748249891
0,5405405405405406;1,027742712287349;4,402309947271201
0,5705705705705706;0,9279346660455026;4,399267958501228
0,6006006006006006;0,8380560354352231;4,383732613126968
0,6306306306306306;0,7573650423922083;4,357087208287213
0,6606606606606606;0,685093847240327;4,320677275021262
0,6906906906906907;0,6204780297026593;4,27578239028284
0,7207207207207207;0,5627779177557768;4,223597559504392
0,7507507507507507;0,5112929245060112;4,165222576011984
0,7807807807807807;0,46537034719919435;4,101657484394463
0,8108108108108109;0,4244099298383962;4,033802520427771
0,8408408408408409;0,387865251710218;3,9624613039342718
0,8708708708708709;0,3552429297274938;3,8883460612578093
0,9009009009009009;0,3261003406615807;3,8120841142823063
0,9309309309309309;0,3000424061744832;3,7342250198139597
0,960960960960961;0,27671788513313367;3,6552478756376985
0,990990990990991;0,2558154841912715;3,5755684728586687
1,021021021021021;0,23705995456021992;3,495546138469508
1,0510510510510511;0,22020832965865006;3,4154901223312386
1,0810810810810811;0,2050463895145298;3,3356654630827776
1,1111111111111112;0,19138540561769132;3,2562983025246486
1,1411411411411412;0,17905916776694517;3,177580674176662
1,1711711711711712;0,1679213056915767;3,0996747759516134
1,2012012012012012;0,15784289346301125;3,022716762534069
1,2312312312312312;0,14871032273835827;2,946820093837548
1,2612612612612613;0,14042343803211413;2,8720784703004782
1,2912912912912913;0,13289385399165307;2,7985684422763337
1,3213213213213213;0,1260435190800035;2,726351664495061
1,3513513513513513;0,1198034411590084;2,6554768666084683
1,3813813813813813;0,1141125556156692;2,5859816182906146
1,4114114114114114;0,10891677630631433;2,517893795971469
1,4414414414414414;0,10416812059438875;2,4512329402110655
1,4714714714714714;0,0998239797326726;2,3860113812936263
1,5015015015015014;0,09584647237707354;2,3222352375892243
1,5315315315315314;0,09220186511556282;2,259905308730217
1,5615615615615615;0,08886009485676029;2,199017809431582
1,5915915915915915;0,08579432498055542;2,1395650507489514
1,6216216216216217;0,08298057196614556;2,0815360109259315
1,6516516516516517;0,08039737935814997;2,024916832202172
1,6816816816816818;0,07802551986175262;1,9696912732136505
1,7117117117117118;0,07584775082525687;1,9158410778430959
1,7417417417417418;0,07384858732087736;1,8633463160704848
1,7717717717717718;0,07201410712077162;1,8121856746905174
1,8018018018018018;0,07033178283819451;1,7623367052060144
1,8318318318318318;0,06879032607945668;1,7137760525548893
1,8618618618618619;0,0673795585845554;1,6664796413545455
1,8918918918918919;0,06609029357656074;1,6204228458233456
1,921921921921922;0,06491423353867906;1,5755806338830753
1,951951951951952;0,0638438730502628;1,5319277030235148
1,981981981981982;0,06287242618114744;1,48943857724962
2,012012012012012;0,0619937482500956;1,448087712769291
2,042042042042042;0,06120227708977419;1,4078495736332453
2,0720720720720722;0,06049297262708213;1,368698709387725
2,1021021021021022;0,05986126917420984;1,330609812731831
2,1321321321321323;0,059303028968846004;1,2935577754585248
2,1621621621621623;0,05881450336799046;1,2575177320717683
2,1921921921921923;0,05839229652925749;1,2224650997905364
2,2222222222222223;0,058033334299483465;1,1883756105979502
2,2522522522522523;0,05773483531516867;1,1552253396052141
2,2822822822822824;0,05749428594996638;1,1229907276516442
2,3123123123123124;0,057309417735722706;1,0916486002275774
2,3423423423423424;0,05717818644808862;1,0611761839239076
2,3723723723723724;0,05709875250734104;1,0315511210401473
2,4024024024024024;0,05706946806866398;1,0027514736841128
2,4324324324324325;0,057088859760303666;0,9747557351887594
2,4624624624624625;0,05715561429541569;0,9475428372037097
2,4924924924924925;0,05726857030373012;0,9210921471930351
2,5225225225225225;0,05742670434838999;0,8953834754396082
2,5525525525525525;0,05762912151714999;0,8703970750691535
2,5825825825825826;0,05787504905185709;0,8461136374319178
2,6126126126126126;0,058163825843128646;0,8225142946157084
2,6426426426426426;0,058494896303919595;0,7995806150797639
2,6726726726726726;0,05886780499464994;0,7772945983744902
2,7027027027027026;0,059282189174296444;0,7556386736918358
2,7327327327327327;0,05973777471750272;0,734595693212325
2,7627627627627627;0,06023437157337332;0,7141489265495987
2,7927927927927927;0,06077186872423426;0,6942820563245812
2,8228228228228227;0,061350231327140035;0,6749791704768059
2,8528528528528527;0,06196949705840159;0,6562247562700215
2,8828828828828827;0,06262977277488069;0,6380036941130773
2,9129129129129128;0,06333123249292488;0,6203012494997878
2,942942942942943;0,06407411458546233;0,6031030666047489
2,972972972972973;0,06485871969287083;0,5863951610159485
3,003003003003003;0,06568540944322364;0,570163911439807
3,033033033033033;0,06655460398350813;0,5543960537311782
3,063063063063063;0,0674667804726869;0,5390786736322378
3,093093093093093;0,06842247238733912;0,5241991984354104
3,123123123123123;0,0694222697782542;0,5097453873311152
3,153153153153153;0,0704668162591548;0,49570532767469466
3,183183183183183;0,0715568087828905;0,48206742677788006
3,2132132132132134;0,07269299775710109;0,46882040350683063
3,2432432432432434;0,07387618698636755;0,4559532804586664
3,2732732732732734;0,07510723217681786;0,4434553787612284
3,3033033033033035;0,07638704108865163;0,4313163104877419
3,3333333333333335;0,07771657414266062;0,4195259705034346
3,3633633633633635;0,07909684428027489;0,408074529914282
3,3933933933933935;0,0805289166082755;0,39695243017772325
3,4234234234234235;0,08201390882276392;0,3861503761237925
3,4534534534534536;0,08355299209224845;0,3756593285280843
3,4834834834834836;0,08514739112752738;0,36547049826720934
3,5135135135135136;0,08679838455065911;0,3555753402473244
3,5435435435435436;0,08850730559859948;0,34596554705160737
3,5735735735735736;0,09027554319280938;0,3366330423014188
3,6036036036036037;0,09210454234501891;0,32756997524923426
3,6336336336336337;0,09399580499656461;0,3187687149656193
3,6636636636636637;0,09595089100776702;0,3102218445325949
3,6936936936936937;0,09797141940316025;0,3019221550645432
3,7237237237237237;0,1000590691375769;0,29386264073229507
3,7537537537537538;0,10221558028077454;0,2860364933535562
3,7837837837837838;0,10444275529243506;0,27843709709649056
3,813813813813814;0,10674246043686739;0,27105802321950967
3,843843843843844;0,10911662692074516;0,263893025380748
3,873873873873874;0,11156725236179572;0,25693603472743537
3,903903903903904;0,11409640240851078;0,2501811550111851
3,933933933933934;0,11670621231115508;0,2436226579615515
3,963963963963964;0,11939888831542389;0,23725497907026472
3,993993993993994;0,12217670942075638;0,23107271313363917
4,024024024024024;0,12504202909663528;0,22507061003968307
4,054054054054054;0,12799727720671208;0,21924357050809454
4,084084084084084;0,13104496261124196;0,2135866412468929
4,114114114114114;0,1341876741985524;0,20809501207993222
4,1441441441441444;0,13742808312570762;0,20276401188454385
4,1741741741741745;0,1407689449799585;0,19758910480171196
4,2042042042042045;0,14421310194054004;0,1925658866299093
4,2342342342342345;0,14776348555617777;0,18769008091672718
4,2642642642642645;0,15142311881087006;0,1829575357323209
4,2942942942942945;0,15519511826305019;0,17836422054051287
4,324324324324325;0,15908269672094985;0,1739062228226316
4,354354354354355;0,16308916580441066;0,16957974493505246
4,384384384384385;0,1672179387323122;0,16538110098583314
4,414414414414415;0,1714725333616516;0,1613067137162798
4,444444444444445;0,17585657450559847;0,15735311186278003
4,474474474474475;0,18037379702465256;0,15351692726517857
4,504504504504505;0,18502804883622648;0,14979489213919775
4,534534534534535;0,189823294015149;0,1461838364376732
4,564564564564565;0,19476361630286318;0,14268068529384867
4,594594594594595;0,19985322209742798;0,13928245653929877
4,624624624624625;0,20509644380570935;0,13598625830006558
4,654654654654655;0,21049774337899982;0,13278928666814044
4,684684684684685;0,21606171587741474;0,12968882344556779
4,714714714714715;0,22179309325975044;0,12668223404865395
4,744744744744745;0,22769674822333438;0,12376696544962672
4,774774774774775;0,2337776978650785;0,12094054399661536
4,804804804804805;0,24004110776444154;0,11820057352030448
4,834834834834835;0,24649229607509576;0,11554473344196609
4,864864864864865;0,25313673774636464;0,11297077697910266
4,894894894894895;0,25998006898047865;0,11047652958869593
4,924924924924925;0,2670280914957214;0,10805988706019959
4,954954954954955;0,27428677710435984;0,10571881394616374
4,984984984984985;0,2817622723915921;0,1034513420363673
5,015015015015015;0,28946090349613673;0,10125556887411126
5,045045045045045;0,29738918104398027;0,09912965659072072
5,075075075075075;0,3055538051613309;0,09707183048135257
5,105105105105105;0,3139616706006643;0,09508037756537292
5,135135135135135;0,32261987202811376;0,09315364548384722
5,165165165165165;0,33153570942469096;0,09129004135831037
5,195195195195195;0,34071669355805434;0,08948803087473643
5,225225225225225;0,3501705514982571;0,08774613767122737
5,255255255255255;0,3599052326397415;0,08606294173937547
5,285285285285285;0,3699289145302928;0,08443707880118606
5,315315315315315;0,380250008907906;0,0828672395431716
5,345345345345345;0,39087716788245486;0,08135216888844152
5,375375375375375;0,4018192902066972;0,07989066540866008
5,405405405405405;0,41308552680804655;0,07848158220515258
5,435435435435435;0,4246852881745684;0,0771238251072787
5,465465465465465;0,4366282511198001;0,07581635215512787
5,495495495495495;0,44892436536697855;0,07455817366297314
5,525525525525525;0,46158386048483985;0,07334835201323923
5,555555555555555;0,474617252959675;0,07218600152799289
5,585585585585585;0,48803535208159915;0,07107028960919196
5,615615615615615;0,5018492665071435;0,07000043747312192
5,645645645645645;0,5160704141372274;0,0689757181051783
5,675675675675675;0,5307105283656025;0,06799545768693116
5,7057057057057055;0,5457816655996567;0,06705903608503283
5,7357357357357355;0,561296212909642;0,06616588743290427
5,7657657657657655;0,5772668949732771;0,06531550142232544
5,7957957957957955;0,5937067767745646;0,06450742791394433
5,8258258258258255;0,6106292777294621;0,06374127332736768
5,8558558558558556;0,6280481780562047;0,0630167029373557
5,885885885885886;0,6459776258506571;0,0623334428476329
5,915915915915916;0,6644321448630163;0,06169128164645728
5,945945945945946;0,6834266422795696;0,061090072254187285
5,975975975975976;0,7029764099762065;0,06052973817914082
6,006006006006006;0,7230971331843762;0,060010275190600725
6,036036036036036;0,7438049016029773;0,05953175161455181
6,066066066066066;0,7651162134117699;0,05909431341086333
6,096096096096096;0,7870479815124897;0,058698188008358035
6,126126126126126;0,8096175386155392;0,058343688604650196
6,156156156156156;0,8328426433234846;0,05803121868948427
6,186186186186186;0,8567414858650936;0,05776127696297382
6,216216216216216;0,8813326928328737;0,057534462737639874
6,246246246246246;0,9066353314458534;0,05735148198821906
6,276276276276276;0,9326689020065405;0,05721316127845167
6,306306306306306;0,9594533448489183;0,05712045245422351
6,336336336336336;0,9870090437468233;0,05707443983595114
6,366366366366366;1,015356822671763;0,05707635191647088
6,396396396396396;1,0445179431343488;0,05712757152963233
6,426426426426427;1,0745141008620838;0,05722964804900591
6,456456456456457;1,105367421228912;0,05738431083434981
6,486486486486487;1,1371004527324713;0,05759348300651086
6,516516516516517;1,1697361464162155;0,057859305704847555
6,546546546546547;1,2032978423687462;0,05818415724836831
6,576576576576577;1,2378092647637016;0,05857066613657494
6,606606606606607;1,273294498634439;0,05902173713525206
6,636636636636637;1,309777955416274;0,059540582622614406
6,666666666666667;1,3472843374520438;0,06013075504022539
6,696696696696697;1,385838622992009;0,06079616949995454
6,726726726726727;1,425466021184921;0,06154114230174591
6,756756756756757;1,466191917267463;0,06237043708456554
6,786786786786787;1,5080417988391377;0,06328932352801873
6,816816816816817;1,5510412127057667;0,06430361530913699
6,846846846846847;1,5952156817399785;0,06541973410466284
6,876876876876877;1,6405906144681075;0,06664477564770899
6,906906906906907;1,6871912118781283;0,06798658166065703
6,936936936936937;1,7350423551099587;0,06945382139556658
6,966966966966967;1,7841684440437862;0,07105610699260727
6,996996996996997;1,834593253504173;0,072804095399552
7,027027027027027;1,8863397590346775;0,07470960925653858
7,057057057057057;1,9394299342170274;0,07678577271727856
7,087087087087087;1,993884522814056;0,07904716848532682
7,117117117117117;2,0497227562498748;0,08151002916595416
7,147147147147147;2,106962038733434;0,08419244948183001
7,177177177177177;2,165617620469794;0,08711460228525973
7,207207207207207;2,225702156878657;0,09029902668224893
7,237237237237237;2,287225265156188;0,09377092078253725
7,267267267267267;2,350192996466701;0,09755848802400027
7,297297297297297;2,414607183702601;0,1016933655209598
7,327327327327327;2,480464795119327;0,10621104313510828
7,357357357357357;2,547757099344697;0,11115140585069698
7,387387387387387;2,6164687042028034;0,11655935569607241
7,4174174174174174;2,6865765294204182;0,12248547781872854
7,4474474474474475;2,758048593455427;0,1289868264207672
7,4774774774774775;2,8308426245749176;0,13612782062239706
7,5075075075075075;2,9049043992886134;0,14398131497645478
7,5375375375375375;2,980165963739952;0,15262974606546828
7,5675675675675675;3,0565434867800474;0,1621665088097401
7,597597597597598;3,1339348962803593;0,17269747385198755
7,627627627627628;3,2122171003649154;0,18434276202441593
7,657657657657658;3,2912429017376232;0,1972387138691811
7,687687687687688;3,3708374360268487;0,2115401389431588
7,717717717717718;3,4507941731775023;0,22742283816185066
7,747747747747748;3,5308704416817855;0,24508639543971694
7,777777777777778;3,6107823849596588;0,26475729183371804
7,807807807807808;3,6901994052802833;0,2866923064225269
7,837837837837838;3,7687380857216306;0,3111821025748749
7,867867867867868;3,84595558716666;0,3385550940655284
7,897897897897898;3,921342609098097;0,3691814106964533
7,927927927927928;3,994316186368927;0,4034766696202772
7,957957957957958;4,06421241545385;0,44190550914629706
7,987987987987988;4,130279429459952;0,4849845670004452
8,018018018018019;4,191671578711837;0,5332839743857126
8,048048048048049;4,247444808675376;0,5874274757145359
8,078078078078079;4,296554836236182;0,6480896794369945
8,108108108108109;4,337858985243066;0,7159897951761842
8,138138138138139;4,370123201938863;0,7918805592573619
8,168168168168169;4,392035981607899;0,8765309920434775
8,198198198198199;4,40223100332173;0,9707016146368515
8,228228228228229;4,3993202888673615;1,0751108452238596
8,258258258258259;4,381939429812669;1,1903916629451023
8,288288288288289;4,348805756483706;1,3170383505309595
8,318318318318319;4,298788631567934;1,4553447092032876
8,348348348348349;4,230990615960461;1,6053357309534717
8,378378378378379;4,144834246756294;1,7666982142729988
8,408408408408409;4,040148255259776;1,9387166179825461
8,438438438438439;3,9172437479615465;2,120223131453116
8,468468468468469;3,7769698597274166;2,3095714597889243
8,498498498498499;3,620738184701931;2,5046433506296615
8,528528528528529;3,4505069640962263;2,7028948272161495
8,558558558558559;3,2687215009253494;2,901442837789026
8,588588588588589;3,0782105106258957;3,0971906410767853
8,618618618618619;2,8820482359419035;3,286979252723007
8,64864864864865;2,683394682002552;3,467751724521426
8,67867867867868;2,4853321192205864;3,6367112239595265
8,70870870870871;2,290715173561676;3,7914564048393085
8,73873873873874;2,1020494479350775;3,9300805673030568
8,76876876876877;1,9214082285472358;4,051227315885517
8,7987987987988;1,7503905929734747;4,154101933932785
8,82882882882883;1,590118389591191;4,2384434903791295
8,85885885885886;1,4412651950111544;4,304466698047475
8,88888888888889;1,3041080745062943;4,352784270717337
8,91891891891892;1,17859255521656;4,384320334423397
8,94894894894895;1,0644022792103627;4,400223819665077
8,97897897897898;0,9610266906796154;4,40178841113587
9,00900900900901;0,8678222515020401;4,39038316486451
9,03903903903904;0,784064674676258;4,367395711964435
9,06906906906907;0,7089912751579152;4,334188277424228
9,0990990990991;0,6418336676320846;4,2920656158847095
9,12912912912913;0,5818417545531989;4,242253308727119
9,15915915915916;0,5283002920280965;4,185884605920379
9,18918918918919;0,48053945119394154;4,1239939684096205
9,21921921921922;0,4379406836249267;4,057515663066783
9,24924924924925;0,3999390927304342;3,9872859577252
9,27927927927928;0,36602329489396584;3,9140477521345813
9,30930930930931;0,33573357043560387;3,83845672443969
9,33933933933934;0,30865892239369586;3,761088297432134
9,36936936936937;0,2844335039206053;3,6824449234221293
9,3993993993994;0,26273276628549935;3,6029633143920567
9,42942942942943;0,24326952105053648;3,5230214336613015
9,45945945945946;0,22579013296658665;3,4429450293443673
9,48948948948949;0,21007090171982193;3,363013680782073
9,51951951951952;0,19591470142241382;3,283466310470086
9,54954954954955;0,18314791281075604;3,204506147541797
9,57957957957958;0,17161764190501744;3,126305175994058
9,60960960960961;0,16118923111957947;3,0490080869048364
9,63963963963964;0,15174404370987724;2,9727357727705424
9,66966966966967;0,14317750147321057;2,897588408268492
9,6996996996997;0,1353973551195029;2,823648156423198
9,72972972972973;0,12832215945006467;2,7509815451775306
9,75975975975976;0,12187994454256483;2,6796415371531785
9,78978978978979;0,11600704419881404;2,609669347102428
9,81981981981982;0,11064707834350604;2,5410960226780297
9,84984984984985;0,10575005859213543;2,473943827559131
9,87987987987988;0,10127161184476445;2,4082274430469726
9,90990990990991;0,0971723000229295;2,3439550184042965
9,93993993993994;0,09341702724952639;2,2811290844047476
9,96996996996997;0,08997452218569045;2,219747350608248
10,0;0,08681688577343168;2,1598033991802836
10,03003003003003;0,08391919624218494;2,1012872896715504
10,06006006006006;0,08125916321065947;2,044186087059974
10,09009009009009;0,07881682556461268;1,9884843208441882
10,12012012012012;0,07657428615551802;1,9341643863690021
10,15015015015015;0,07451547908667008;1,8812068949736453
10,18018018018018;0,07262596731165623;1,8295909761922666
10,21021021021021;0,07089276345520677;1,779294543448448
10,24024024024024;0,06930416828232139;1,7302945322276173
10,27027027027027;0,06784963868887664;1,6825670909796948
10,3003003003003;0,066519658276609;1,6360877680621781
10,33033033033033;0,0653056346050324;1,5908316566819904
10,36036036036036;0,06419980169001628;1,5467735312956221
10,39039039039039;0,06319513453190971;1,5038879649783157
10,42042042042042;0,06228527754740284;1,462149424912714
10,45045045045045;0,06146447419207373;1,4215323658600032
10,48048048048048;0,060727511849843666;1,3820112997413554
10,51051051051051;0,060069666944743576;1,3435608644322234
10,54054054054054;0,05948665943799194;1,3061558781120113
10,57057057057057;0,05897461167726384;1,2697713868229352
10,6006006006006;0,058530010083969665;1,2343827075586806
10,63063063063063;0,05814967386767404;1,1999654603698044
10,66066066066066;0,05783072391979358;1,1664956002241924
10,69069069069069;0,0575705575392417;1,1339494399714936
10,72072072072072;0,057366824289213365;1,1023036716118977
10,75075075075075;0,057217404759288625;1,0715353831785002
10,78078078078078;0,05712039189712232;1,0416220717721318
10,81081081081081;0,05707407319033017;1,0125416554325928
10,84084084084084;0,05707691684931572;0,9842724790294856
10,87087087087087;0,05712755773402859;0,9567933207381749
10,9009009009009;0,0572247823407046;0,9300834002340971
10,93093093093093;0,05736752081242602;0,9041223761689314
10,96096096096096;0,05755483631270996;0,878890348006515
10,99099099099099;0,05778591416754212;0,8543678583912802
11,02102102102102;0,05806005569054479;0,8305358886150175
11,05105105105105;0,058376670667888125;0,807375856380836
11,08108108108108;0,058735269317639366;0,7848696148613439
11,11111111111111;0,05913545766229392;0,7629994464390368
11,14114114114114;0,059576932142683454;0,741748058080339
11,17117117117117;0,06005947396716916;0,7210985774210183
11,2012012012012;0,06058294546754087;0,7010345460063225
11,23123123123123;0,06114728630338459;0,6815399130704841
11,26126126126126;0,06175250938846255;0,6625990300049893
11,29129129129129;0,062398698192103474;0,6441966430291228
11,32132132132132;0,06308600407742511;0,6263178860796321
11,35135135135135;0,06381464345809883;0,608948274427419
11,381381381381381;0,06458489582026083;0,592073697076225
11,411411411411411;0,06539710190940151;0,5756804092493241
11,441441441441441;0,0662516617925526;0,5597550253668656
11,471471471471471;0,06714903348724956;0,5442845114559846
11,501501501501501;0,06808973179633455;0,5292561775272121
11,531531531531531;0,06907432706763754;0,5146576703988157
11,561561561561561;0,07010344431909192;0,5004769662000601
11,591591591591591;0,07117776258164157;0,48670236280999185
11,621621621621621;0,07229801413535217;0,4733224727783941
11,651651651651651;0,07346498412981595;0,46032621591762896
11,681681681681681;0,07467951041944153;0,44770281183610533
11,711711711711711;0,07594248339322363;0,4354417727564252
11,741741741741741;0,07725484530210514;0,4235328974469774
11,771771771771771;0,07861759072092163;0,41196626356753585
11,801801801801801;0,0800317668881187;0,40073222049167434
11,831831831831831;0,08149847384676125;0,38982138272913747
11,861861861861861;0,08301886420631721;0,37922462425012815
11,891891891891891;0,0845941440648399;0,368933071149651
11,921921921921921;0,08622557349876998;0,35893809529251697
11,951951951951951;0,08791446707840918;0,3492313081822686
11,981981981981981;0,08966219451899408;0,33980455489160744
12,012012012012011;0,09147018141844902;0,3306499080375033
12,042042042042041;0,0933399100474421;0,3217596619603242
12,072072072072071;0,0952729202950068;0,3131263269110057
12,102102102102101;0,09727081084074245;0,304742623146847
12,132132132132131;0,09933523990739791;0,2966014758448125
12,162162162162161;0,10146792643467799;0,2886960096477827
12,192192192192191;0,10367065134885166;0,28101954329435486
12,222222222222221;0,10594525892188932;0,27356558434185746
12,252252252252251;0,10829365788908737;0,266327824460035
12,282282282282281;0,11071782289857618;0,2593001344626335
12,312312312312311;0,11321979606666889;0,2524765594258262
12,342342342342342;0,11580168852429114;0,24585131402062546
12,372372372372372;0,11846568190731155;0,23941877811608914
12,402402402402402;0,12121403006128116;0,23317349231173615
12,432432432432432;0,12404906087532849;0,22711015355656047
12,462462462462462;0,12697317805171307;0,22122361096703894
12,492492492492492;0,12998886294496964;0,2155088618026697
12,522522522522522;0,13309867654032398;0,20996104745329916
12,552552552552552;0,13630526164079826;0,20457544944491862
12,582582582582582;0,13961134477872927;0,19934748580991948
12,612612612612612;0,14301973836346912;0,19427270743714758
12,642642642642642;0,14653334293523826;0,1893467944994908
12,672672672672672;0,1501551494497646;0,18456555301564723
12,702702702702702;0,15388824186594074;0,17992491132575472
12,732732732732732;0,15773580021381445;0,17542091633584833
12,762762762762762;0,1617011020847472;0,17104973121461353
12,792792792792792;0,16578752557280807;0,16680763206482138
12,822822822822824;0,16999855199192815;0,16269100493989383
12,852852852852854;0,1743377686203789;0,15869634299982419
12,882882882882884;0,1788088723841919;0,15482024284283097
12,912912912912914;0,18341567271757273;0,1510594018961946
12,942942942942944;0,18816209360532332;0,14741061686091544
12,972972972972974;0,19305217720949516;0,14387078064231773
13,003003003003004;0,19809008705693854;0,14043687992946058
13,033033033033034;0,20328011140533686;0,1371059927529848
13,063063063063064;0,20862666806271046;0,1338752845303326
13,093093093093094;0,21413430644039488;0,13074200753352386
13,123123123123124;0,2198077111042561;0,12770349879195025
13,153153153153154;0,2256517057475241;0,12475717768926722
13,183183183183184;0,23167125695148527;0,12190054399555046
13,213213213213214;0,23787147854088814;0,11913117553342822
13,243243243243244;0,24425763692294974;0,11644672513194451
13,273273273273274;0,25083515295669506;0,11384492083310423
13,303303303303304;0,2576096068981382;0,11132356352333009
13,333333333333334;0,2645867428046212;0,10888052520993298
13,363363363363364;0,2717724729393442;0,10651374746090059
13,393393393393394;0,2791728836071598;0,10422123910218879
13,423423423423424;0,28679423971521456;0,10200107483659966
13,453453453453454;0,2946429880448213;0,09985139479261801
13,483483483483484;0,3027257629598276;0,09777040271266804
13,513513513513514;0,3110493914213074;0,09575636470542684
13,543543543543544;0,3196208982316424;0,09380760802882625
13,573573573573574;0,3284475130924434;0,09192251936239311
13,603603603603604;0,3375366742393223;0,09009954435822096
13,633633633633634;0,3468960339387809;0,0883371866647852
13,663663663663664;0,35653346452166673;0,08663400687649543
13,693693693693694;0,36645706416067525;0,084988621679761
13,723723723723724;0,3766751631665799;0,0833997031114194
13,753753753753754;0,3871963311176025;0,08186597796232319
13,783783783783784;0,39802938126903364;0,08038622695548929
13,813813813813814;0,40918337745845773;0,07895928424281583
13,843843843843844;0,4206676406279365;0,07758403692009945
13,873873873873874;0,43249175539218443;0,07625942460512562
13,903903903903904;0,4446655769372628;0,07498443998391924
13,933933933933934;0,4571992378273658;0,07375812851345925
13,963963963963964;0,47010315471421055;0,07257958725732616
13,993993993993994;0,4833880355360611;0,07144796537191754
14,024024024024024;0,4970648867143089;0,07036246413281855
14,054054054054054;0,511145020338793;0,06932233724764637
14,084084084084084;0,5256400596319376;0,06832689411671328
14,114114114114114;0,5405619483355819;0,06737549725731602
14,144144144144144;0,5559229583324572;0,06646756274458925
14,174174174174174;0,5717356969194751;0,06560256146323444
14,204204204204204;0,5880131145934423;0,06478001983065287
14,234234234234235;0,6047685110985408;0,0639995223697862
14,264264264264265;0,6220155382723078;0,06326071751988431
14,294294294294295;0,6397682160110698;0,06256331120131332
14,324324324324325;0,6580409374278996;0,06190707083417171
14,354354354354355;0,6768484763956196;0,061291827294808754
14,384384384384385;0,6962059955157595;0,060717476668840996
14,414414414414415;0,716129046641679;0,06018398795627308
14,444444444444445;0,736633576747822;0,05969140682412014
14,474474474474475;0,7577359432945597;0,05923985219367508
14,504504504504505;0,7794529170493013;0,058829522727096725
14,534534534534535;0,8018016873266121;0,05846070123293764
14,564564564564565;0,8247998636560562;0,05813376103966337
14,594594594594595;0,84846548760257;0,05784916757537168
14,624624624624625;0,8728170368190044;0,05760748398252569
14,654654654654655;0,8978734295023227;0,057409376904561174
14,684684684684685;0,9236540133660902;0,057255633232716374
14,714714714714715;0,9501785765589918;0,05714716182679811
14,744744744744745;0,9774673520277126;0,05708499995600652
14,774774774774775;1,0055410136596503;0,05707032493441983
14,804804804804805;1,0344206710944017;0,05710446577797436
14,834834834834835;1,064127874046966;0,05718891172468076
14,864864864864865;1,0946846076601633;0,05732532458220504
14,894894894894895;1,1261132690745992;0,057515564360825534
14,924924924924925;1,1584366661848178;0,05776170014889596
14,954954954954955;1,1916780157605569;0,05806602155404109
14,984984984984985;1,2258609207371431;0,05843106358897287
15,015015015015015;1,2610093281592365;0,05885964251063698
15,045045045045045;1,2971475380534132;0,05935486266779446
15,075075075075075;1,3343001744685923;0,05992014537380312
15,105105105105105;1,3724921312551754;0,06055927402416603
15,135135135135135;1,4117485293065926;0,06127643227440989
15,165165165165165;1,4520946913748451;0,06207623134526135
15,195195195195195;1,4935560746284007;0,06296376297116518
15,225225225225225;1,5361582176962518;0,06394464439155649
15,255255255255255;1,5799266762364705;0,06502507062447206
15,285285285285285;1,6248869009783087;0,06621190293855908
15,315315315315315;1,6710641768310726;0,06751271870018603
15,345345345345345;1,7184835118676063;0,06893589273282578
15,375375375375375;1,7671694654839363;0,07049071597946416
15,405405405405405;1,8171460573503673;0,07218746533922968
15,435435435435435;1,8684365829331182;0,07403753141047162
15,465465465465465;1,9210633717949095;0,07605358295220319
15,495495495495495;1,975047610811457;0,07824968954969988
15,525525525525525;2,0304090717489722;0,08064150406716314
15,555555555555555;2,087165843350828;0,0832464436087381
15,585585585585585;2,145333943991246;0,08608394688419435
15,615615615615615;2,2049269759399603;0,08917570389125913
15,645645645645645;2,2659556546940975;0,09254596459094405
15,675675675675675;2,3284273115384497;0,09622186505591335
15,705705705705705;2,392345328126244;0,10023379803570188
15,735735735735735;2,45770840852572;0,10461588779419471
15,765765765765765;2,524509852616259;0,10940646167783213
15,795795795795796;2,5927366802025853;0,11464861785862789
15,825825825825826;2,6623685859023705;0,12039090366617751
15,855855855855856;2,7333768020096203;0,12668805135819966
15,885885885885886;2,80572272935159;0,133601861020833
15,915915915915916;2,8793564572695813;0,14120215586020807
15,945945945945946;2,9542149450935318;0,14956795396932995
15,975975975975976;3,0302200876316525;0,15878871224627567
16,006006006006007;3,107276341837812;0,16896584782399718
16,036036036036037;3,185268190883033;0,18021436219815096
16,066066066066067;3,2640570563668114;0,19266480845617034
16,096096096096097;3,3434779834240977;0,206465395614265
16,126126126126128;3,423335802250773;0,2217844118112405
16,156156156156158;3,5034007727310135;0,23881295248271772
16,186186186186188;3,583403761752634;0,25776790741854255
16,216216216216218;3,6630308782101366;0,2788952475677317
16,246246246246248;3,7419175433091674;0,3024735925168472
16,276276276276278;3,81964206780937;0,3288179745981716
16,306306306306308;3,8957187758108454;0,3582837555262408
16,336336336336338;3,9695907798342702;0,39127054536160355
16,366366366366368;4,04062273713556;0,4282258137560352
16,396396396396398;4,108093746022117;0,4696480448227668
16,426426426426428;4,1711909056828045;0,5160889461092563
16,456456456456458;4,229004250712314;0,5681540464328578
16,486486486486488;4,280523934959501;0,6265009703372179
16,516516516516518;4,324640522595122;0,6918346203622358
16,546546546546548;4,360150131588397;0,7648978270787242
16,576576576576578;4,385765759367245;0,8464564053033363
16,606606606606608;4,400136723841066;0,9372771064776582
16,636636636636638;4,401878031311303;1,0380971608867209
16,666666666666668;4,389611318419646;1,1495843494486326
16,696696696696698;4,362018480406148;1,2722871571242016
16,726726726726728;4,317908074951418;1,4065755939993854
16,756756756756758;4,256293068880453;1,5525747352510584
16,786786786786788;4,1764763157582205;1,710095061831167
16,816816816816818;4,07813789934674;1,878565596162899
16,846846846846848;3,9614158891227342;2,0569780549130883
16,876876876876878;3,8269703100022197;2,2438513714004937
16,906906906906908;3,6760193716730587;2,4372261411521685
16,936936936936938;3,5103383431837787;2,6346965748252757
16,966966966966968;3,332214946485742;2,8334836879114205
16,996996996996998;3,1443604218548886;3,0305480062309735
17,027027027027028;2,949782007931896;3,2227336923244314
17,057057057057058;2,751628897126448;3,406930298733903
17,087087087087088;2,553027948151256;3,5802350386841053
17,117117117117118;2,356927221269391;3,7400977097787838
17,147147147147148;2,1659634775668892;3,88443338579974
17,177177177177178;1,9823651119312709;4,0116934310285615
17,207207207207208;1,807896057920645;4,120891777733656
17,237237237237238;1,643840056183418;4,211589600208256
17,26726726726727;1,4910196508830902;4,283846349655027
17,2972972972973;1,3498410195856738;4,338147797161048
17,32732732732733;1,220355693781637;4,375321107210198
17,35735735735736;1,1023293157426324;4,396447550165139
17,38738738738739;0,9953106628065456;4,4027795598427435
17,41741741741742;0,8986954515156638;4,395667384166731
17,44744744744745;0,8117818217142393;4,376497873374764
17,47747747747748;0,7338161108262431;4,346646141544337
17,50750750750751;0,6640287760229052;4,307439593188269
17,53753753753754;0,6016612300032088;4,260132850344064
17,56756756756757;0,5459848073090227;4,205891868026887
17,5975975975976;0,49631322699973907;4,145785378859477
17,62762762762763;0,45200992694821557;4,080781929827097
17,65765765765766;0,4124915127331955;4,0117509868125625
17,68768768768769;0,37722837984652074;3,939466846739527
17,71771771771772;0,3457433731292954;3,8646143528278873
17,74774774774775;0,3176091604552786;3,7877956457709048
17,77777777777778;0,29244483432345797;3,709537384450373
17,80780780780781;0,2699121182877101;3,630298034342828
17,83783783783784;0,24971144553652708;3,5504749510465263
17,86786786786787;0,23157809904575602;3,4704110774621424
17,8978978978979;0,21527849564137996;3,390401184447841
17,92792792792793;0,20060675478354267;3,3106975581511757
17,95795795795796;0,1873815205175734;3,23151514789344
17,98798798798799;0,1754430827852329;3,1530361895387014
18,01801801801802;0,16465079087958864;3,0754143212395033
18,04804804804805;0,1548807440783284;2,998778234647391
18,07807807807808;0,14602374606507862;2,9232348913098045
18,10810810810811;0,1379834868707763;2,848872369987694
18,13813813813814;0,1306749805110689;2,7757623027784755
18,16816816816817;0,12402317701590183;2,703962036881733
18,1981981981982;0,11796164869239986;2,6335166895452233
18,22822822822823;0,11243164128119378;2,5644605978285977
18,25825825825826;0,10738105881552427;2,4968189086501984
18,28828828828829;0,10276368469803922;2,430608776663634
18,31831831831832;0,09853845856652663;2,3658404824770574
18,34834834834835;0,09466885667310983;2,3025183895235095
18,37837837837838;0,09112234928341498;2,2406417789728965
18,40840840840841;0,08786992548684433;2,180205579849118
18,43843843843844;0,08488568767175401;2,1212009902011406
18,46846846846847;0,08214647651123892;2,063616051209043
18,4984984984985;0,07963156385454867;2,0074361137654506
18,52852852852853;0,07732237322183055;1,9526442620275684
18,55855855855856;0,07520223367557456;1,899221684685795
18,58858858858859;0,07325617197415767;1,8471479859555515
18,61861861861862;0,07147072075531935;1,7964014712394762
18,64864864864865;0,06983375573264818;1,7469593868970634
18,67867867867868;0,06833435195984142;1,6987981299522201
18,70870870870871;0,0669626530224233;1,6518934373199958
18,73873873873874;0,06570975992022228;1,6062205438377835
18,76876876876877;0,06456763442026248;1,5617543173816655
18,7987987987988;0,0635290066755608;1,518469387342377
18,82882882882883;0,06258729887340811;1,4763402476529652
18,85885885885886;0,06173655558309481;1,4353413489990523
18,88888888888889;0,06097138451161778;1,3954471746672383
18,91891891891892;0,06028689903275648;1,3566323138544913
18,94894894894895;0,05967867271455084;1,318871515775683
18,97897897897898;0,059142693262770524;1,2821397449784202
19,00900900900901;0,05867532701918068;1,2464122198906142
19,03903903903904;0,05827328168689588;1,2116644543537844
19,06906906906907;0,05793357848723705;1,1778722842963298
19,0990990990991;0,05765352208192025;1,1450118983071216
19,12912912912913;0,05743067819581387;1,1130598559415343
19,15915915915916;0,05726284908104619;1,0819931098222655
19,18918918918919;0,05714805896113936;1,051789011870472
19,21921921921922;0,05708453042494536;1,0224253346732146
19,24924924924925;0,05707067033859698;0,9938802775796782
19,27927927927928;0,05710505848280052;0,9661324686120316
19,30930930930931;0,057186429462923606;0,9391609776237813
19,33933933933934;0,05731366669331726;0,9129453102538316
19,36936936936937;0,0574857879430512;0,887465416009011
19,3993993993994;0,05770193750682025;0,8627016857499377
19,42942942942943;0,057961378709919714;0,8386349489914814
19,45945945945946;0,05826348369215288;0,8152464760875233
19,48948948948949;0,05860772963381536;0,7925179701114751
19,51951951951952;0,05899369019766572;0,7704315669183532
19,54954954954955;0,059421031137176485;0,7489698287658111
19,57957957957958;0,059889505492854156;0,7281157389516039
19,60960960960961;0,06039894787146438;0,7078526982906049
19,63963963963964;0,06094927200617746;0,6881645165365837
19,66966966966967;0,06154046531818602;0,6690354090055797
19,6996996996997;0,06217258742455575;0,650449987179957
19,72972972972973;0,06284576797615238;0,6323932507049405
19,75975975975976;0,06356020110022659;0,6148505852135431
19,78978978978979;0,06431614397940452;0,5978077537812101
19,81981981981982;0,06511391712129083;0,5812508859704631
19,84984984984985;0,06595390087967933;0,5651664731378477
19,87987987987988;0,06683653261634222;0,5495413629625072
19,90990990990991;0,06776230804671336;0,5343627479081
19,93993993993994;0,06873177919691732;0,5196181591310769
19,96996996996997;0,06974555175600451;0,5052954616455525
20,0;0,07080428629459673;0,49138284379983566
20,03003003003003;0,07190869739761349;0,477868810267914
20,06006006006006;0,0730595518967687;0,4647421765824733
20,09009009009009;0,0742576694141144;0,45199206059348146
20,12012012012012;0,07550392244624239;0,43960787486007413
20,15015015015015;0,07679923547995182;0,42757932060050496
20,18018018018018;0,07814458502951413;0,4158963806599361
20,21021021021021;0,07954100037465117;0,40454931181035364
20,24024024024024;0,08098956336706431;0,3935286384887937
20,27027027027027;0,08249140831138348;0,3828251466622834
20,3003003003003;0,08404772305781545;0,37242987643412784
20,33033033033033;0,08565974922702782;0,36233411592654485
20,36036036036036;0,0873287821902401;0,352529395582279
20,39039039039039;0,08905617258375424;0,34300748110476004
20,42042042042042;0,09084332697906755;0,3337603674724989
20,45045045045045;0,09269170877050771;0,32478027294095
20,48048048048048;0,0946028379492191;0,3160596343043197
20,51051051051051;0,09657829226015346;0,3075911010416519
20,54054054054054;0,0986197093984124;0,29936752867475247
20,57057057057057;0,10072878762257566;0,29138197383749664
20,6006006006006;0,10290728684268899;0,28362768901947943
20,63063063063063;0,10515702898530976;0,27609811784778904
20,66066066066066;0,10747990040513669;0,2687868894716629
20,69069069069069;0,10987785308666498;0,26168781373765976
20,72072072072072;0,11235290604394489;0,25479487642547766
20,75075075075075;0,11490714651865304;0,2481022345540905
20,78078078078078;0,11754273158605406;0,2416042118172584
20,81081081081081;0,1202618901778072;0,2352952941485822
20,84084084084084;0,12306692464295159;0,22917012539957415
20,87087087087087;0,12596021252592735;0,2232235030815645
20,9009009009009;0,12894420826531366;0,21745037390129543
20,93093093093093;0,1320214453148212;0,21184583018468794
20,96096096096096;0,1351945381103062;0,20640510593129144
20,99099099099099;0,13846618412178224;0,20112357302086215
21,02102102102102;0,14183916605386193;0,19599673715682092
21,05105105105105;0,14531635406709967;0,19102023425952808
21,08108108108108;0,14890070799862495;0,18618982745678142
21,11111111111111;0,1525952797524943;0,18150140350895488
21,14114114114114;0,1564032157683216;0,17695096946510652
21,17117117117117;0,1603277597944799;0,17253464886013237
21,2012012012012;0,16437225520641377;0,1682486793028168
21,23123123123123;0,16854014772239662;0,1640894093787122
21,26126126126126;0,1728349881795708;0,16005329568908788
21,29129129129129;0,17726043572994382;0,15613689946676038
21,32132132132132;0,18182026075555263;0,1523368838590125
21,35135135135135;0,18651834740006837;0,1486500120409683
21,38138138138138;0,19135869688773446;0,14507314429739218
21,41141141141141;0,1963454306796485;0,14160323558364762
21,44144144144144;0,20148279378028505;0,13823733308697606
21,47147147147147;0,206775159529059;0,1349725720054733
21,5015015015015;0,2122270317435393;0,13180617506487258
21,53153153153153;0,21784304808655383;0,1287354506017876
21,56156156156156;0,2236279840574246;0,1257577900143931
21,59159159159159;0,22958675671886106;0,12287066576708838
21,62162162162162;0,23572442889321238;0,12007162914970304
21,65165165165165;0,24204621466579057;0,11735830706515024
21,68168168168168;0,24855748120501275;0,11472840217087305
21,71171171171171;0,2552637535466153;0,11217969061251765
21,74174174174174;0,2621707190153316;0,10971002023320138
21,77177177177177;0,2692842315914353;0,10731730899193269
21,8018018018018;0,27661031740023934;0,10499954279594953
21,83183183183183;0,28415517995708217;0,10275477363214658
21,86186186186186;0,2919252028320782;0,10058111950951479
21,89189189189189;0,2999269554472066;0,09847676251481742
21,92192192192192;0,30816719806288206;0,09643994753373213
21,95195195195195;0,316652886892401;0,094468981040942
21,98198198198198;0,32539118103483955;0,09256222935274797
22,01201201201201;0,33438944666232456;0,09071811796893109
22,04204204204204;0,3436552618541832;0,08893513079470806
22,07207207207207;0,3531964227837883;0,08721180899121303
22,1021021021021;0,3630209494532155;0,08554675009780187
22,13213213213213;0,373137091750804;0,08393860724280873
22,16216216216216;0,3835533368427114;0,08238608853103896
22,19219219219219;0,3942784135850373;0,08088795623136955
22,22222222222222;0,40532129911569326;0,07944302621493331
22,25225225225225;0,41669122544393805;0,0780501674533568
22,28228228228228;0,428397685974746;0,07670830157156637
22,31231231231231;0,4404504422981599;0,0754164029819944
22,34234234234234;0,45285953117205685;0,07417349934622845
22,37237237237237;0,46563527099462887;0,07297866986705398
22,4024024024024;0,47878826900514576;0,07183104580589568
22,43243243243243;0,492329428447752;0,0707298105102024
22,46246246246246;0,5062699558422303;0,06967419949891618
22,49249249249249;0,52062136681081;0,0686635031215878
22,52252252252252;0,5353954941310083;0,06769706594437075
22,55255255255255;0,5506044964431319;0,0667742853662901
22,58258258258258;0,5662608651749188;0,06589461334908117
22,61261261261261;0,582377432293174;0,06505755710275381
22,64264264264264;0,5989673776069102;0,06426268040002463
22,67267267267267;0,6160442302417555;0,06350961065131493
22,7027027027027;0,6336218832101216;0,06279803369002933
22,73273273273273;0,6517146008938349;0,0621276955190537
22,762762762762762;0,6703370257525235;0,06149840499682254
22,792792792792792;0,6895041862743985;0,06091003553947178
22,822822822822822;0,709231501842814;0,06036252940369254
22,852852852852852;0,7295347807736486;0,05985590745681198
22,882882882882882;0,7504302397797314;0,059390262503954155
22,912912912912912;0,7719345070772529;0,058965765497925454
22,942942942942942;0,7940646282270214;0,0585826697224427
22,972972972972972;0,8168380674820224;0,058241317190267185
23,003003003003002;0,8402727175947161;0,057942141188672525
23,033033033033032;0,8643869061591648;0,0576856706980501
23,063063063063062;0,8891994002921484;0,057472535817373264
23,093093093093092;0,9147294019303156;0,05730348008590303
23,123123123123122;0,9409965454356535;0,05717937137891643
23,153153153153152;0,9680209119243981;0,057101201362287655
23,183183183183182;0,9958230247117849;0,05707009804958301
23,213213213213212;1,0244238435238846;0,057087337453305534
23,243243243243242;1,0538447675141671;0,05715435252934954
23,273273273273272;1,084107633220676;0,05727274428625791
23,303303303303302;1,1152347004704677;0,05744430092752915
23,333333333333332;1,1472486333253529;0,05767102070168908
23,363363363363362;1,1801725109337924;0,0579551146818582
23,393393393393392;1,2140298083954648;0,058299029777798064
23,423423423423422;1,2488443549018973;0,05870548434986143
23,453453453453452;1,2846403314801227;0,05917748137504818
23,483483483483482;1,3214422543753817;0,059718330126961684
23,513513513513512;1,3592749344553556;0,06033168254942438
23,543543543543542;1,3981634135042669;0,06102158450081294
23,573573573573572;1,438132952444428;0,061792494644552255
23,603603603603602;1,4792089699280193;0,06264933398311305
23,633633633633632;1,5214169816717802;0,06359753491477552
23,663663663663662;1,564782548722718;0,06464308595123004
23,693693693693692;1,609331169071479;0,06579261142920446
23,723723723723722;1,6550881916913651;0,06705343728153502
23,753753753753752;1,7020787386698297;0,0684336516146296
23,783783783783782;1,750327535534717;0,06994222209501265
23,813813813813812;1,7998588022681747;0,0715890765648821
23,843843843843842;1,8506961109484192;0,07338520449053104
23,873873873873872;1,902862140825127;0,07534282335986309
23,903903903903903;1,9563784990060826;0,07747550320365404
23,933933933933933;2,0112654720887257;0,0797983339753629
23,963963963963963;2,06754176181753;0,0823281037298368
23,993993993993993;2,125224142460408;0,0850835274358907
24,024024024024023;2,184327083011051;0,08808549770194082
24,054054054054053;2,2448623549681583;0,09135734352467868
24,084084084084083;2,306838497407792;0,09492517994216618
24,114114114114113;2,370260331440514;0,09881822738863445
24,144144144144143;2,4351282377651393;0,103069283169517
24,174174174174173;2,501437467556536;0,10771516979042715
24,204204204204203;2,5691772952424428;0,11279728365291797
24,234234234234233;2,6383300609148987;0,11836221685653908
24,264264264264263;2,7088700310186598;0,12446249530674246
24,294294294294293;2,7807621451339526;0,13115738737050966
24,324324324324323;2,853960556651307;0,13851384546750847
24,354354354354353;2,928406936295095;0,14660759999234954
24,384384384384383;3,0040285989189224;0,15552436515899176
24,414414414414413;3,080736242690135;0,1653612886801614
24,444444444444443;3,1584215391518793;0,17622849762084491
24,474474474474473;3,2369541664014356;0,18825099011873297
24,504504504504503;3,3161786217130236;0,20157066270891288
24,534534534534533;3,3959105707060027;0,21634862041450295
24,564564564564563;3,4759326371578836;0,23276781940138
24,594594594594593;3,555989780371299;0,25103594417100894
24,624624624624623;3,6357841005028617;0,271388604656842
24,654654654654653;3,714969097322011;0,29409280756180933
24,684684684684683;3,793143428184223;0,3194506573611633
24,714714714714713;3,8698441505126504;0,3478032525149597
24,744744744744743;3,944539637883257;0,3795345773123847
24,774774774774773;4,0166222523271005;0,41507532370231204
24,804804804804803;4,0854012236583666;0,4549061512319343
24,834834834834833;4,150095841208066;0,49956037161979877
24,864864864864863;4,209829888911106;0,549625103452993
24,894894894894893;4,263627934429002;0,6057404629482683
24,924924924924923;4,310414383650527;0,6685959458179374
24,954954954954953;4,349016825847944;0,7389227403761315
24,984984984984983;4,378175023617721;0,8174808752351103
25,015015015015013;4,396557366266024;0,9050397594423629
25,045045045045043;4,402786632793453;1,002350748667607
25,075075075075073;4,395476801882303;1,1101105546012278
25,105105105105103;4,37328225754768;1,228914795505164
25,135135135135133;4,334959885406447;1,3592018691527923
25,165165165165163;4,279443199688924;1,5011886584662135
25,195195195195193;4,2059257758591775;1,6548013198139095
25,225225225225223;4,11394864775311;1,8196067893510464
25,255255255255253;4,003484569885964;1,99475195315498
25,285285285285283;3,8750088538552996;2,1789202137168227
25,315315315315313;3,7295463301206393;2,370314649395818
25,345345345345343;3,568683980107599;2,566676416496871
25,375375375375373;3,394541613859517;2,765343715196979
25,405405405405403;3,209697826064211;2,9633515268012625
25,435435435435434;3,0170746760606373;3,157566240830093
25,465465465465464;2,8197910120315286;3,3448432365684178
25,495495495495494;2,6209997265163176;3,5221909695541846
25,525525525525524;2,423726651755449;3,686923714950868
25,555555555555554;2,2307281967069605;3,8367867600657473
25,585585585585584;2,044381217842808;3,9700423535279663
25,615615615615614;1,8666126815627475;4,085511233476843
25,645645645645647;1,698870458201991;4,18257093002261
25,675675675675677;1,5421313028452528;4,261117188567146
25,705705705705707;1,3969378969716157;4,321498693678426
25,735735735735737;1,2634558479224334;4,36443540039561
25,765765765765767;1,1415409401547687;4,390931138851047
25,795795795795797;1,0308087985589824;4,402188452071249
25,825825825825827;0,9307009161153214;4,399531582259946
25,855855855855857;0,8405432436001309;4,384340913790504
25,885885885885887;0,759595350072954;4,3580002398012105
25,915915915915917;0,6870896819723048;4,321856659700277
25,945945945945947;0,622261393102661;4,277191968578799
25,975975975975977;0,5643698551602857;4,22520382365445
26,006006006006007;0,51271319520467;4,1669948807261825
26,036036036036037;0,4666372403910512;4,1035680965341665
26,066066066066067;0,42554017031756314;4,035826593888273
26,096096096096097;0,3888740016082546;3,9645767365337212
26,126126126126128;0,3561438351739847;3,8905333237906516
26,156156156156158;0,32690560531279095;3,8143260595801176
26,186186186186188;0,3007628973288055;3,7365066648904373
26,216216216216218;0,27736325439979354;3,657556179483115
26,246246246246248;0,25639427567245787;3,5778921396611327
26,276276276276278;0,23757971794331922;3,4978754238189236
26,306306306306308;0,22067572452729708;3,4178166546032758
26,336336336336338;0,20546728692257815;3,337982076794009
26,366366366366368;0,19176497732533118;3,2585988980739886
26,396396396396398;0,17940196724146248;3,1798600880109453
26,426426426426428;0,16823134101342274;3,101928662042538
26,456456456456458;0,158123696915043;3,024941483503407
26,486486486486488;0,14896501240989302;2,949012626321803
26,516516516516518;0,14065475503290603;2,8742363372738358
26,546546546546548;0,13310419950277946;2,800689666356643
26,576576576576578;0,12623506673042578;2,7284345775208267
26,606606606606608;0,11997807253244691;2,6575202311348116
26,636636636636638;0,11427195496244144;2,5879844668826197
26,666666666666668;0,10906242934897699;2,5198554372622173
26,696696696696698;0,10430134768095402;2,453152906728219
26,726726726726728;0,09994595581763886;2,3878893983554796
26,756756756756758;0,09595823895166578;2,3240712049144103
26,786786786786788;0,09230435435211658;2,2616992634838846
26,816816816816818;0,0889541332289696;2,2007699206092903
26,846846846846848;0,08588065425333362;2,1412755865875797
26,876876876876878;0,0830598551551626;2,0832053301855846
26,906906906906908;0,08047020979730712;2,026545370612087
26,936936936936938;0,07809243025998809;1,9712795294991061
26,966966966966968;0,07590921838918327;1,9173896061033595
26,996996996996998;0,07390504168966751;1,8648557137382638
27,027027027027028;0,07206593457259958;1,8136565764170611
27,057057057057058;0,07037933066893674;1,763769776461728
27,087087087087088;0,06883390827285528;1,7151719811440473
27,117117117117118;0,06741945768796757;1,6678391349523676
27,147147147147148;0,06612676439446714;1,6217466266685654
27,177177177177178;0,06494750351627389;1,5768694384835373
27,207207207207208;0,06387415357066878;1,5331822648035809
27,237237237237238;0,06289990514023695;1,4906596389828162
27,26726726726727;0,062018598388622795;1,4492760142979613
27,2972972972973;0,06122465298356399;1,4090058568121595
27,32732732732733;0,06051301574306554;1,3698237105497284
27,35735735735736;0,059879106642414345;1,3317042651840383
27,38738738738739;0,05931877653663954;1,294622405204397
27,41741741741742;0,05882826552962786;1,2585532582530992
27,44744744744745;0,05840416817772027;1,2234722326257128
27,47747747747748;0,058043401233813574;1,1893550509150188
27,50750750750751;0,057743175143607696;1,1561777779689302
27,53753753753754;0,05750096879448238;1,1239168437735434
27,56756756756757;0,05731450536954097;1,0925490648142828
27,5975975975976;0,05718173477952225;1,062051655085303
27,62762762762763;0,057100814777556116;1,0324022396103016
27,65765765765766;0,05707008919217766;1,003578873028315
27,68768768768769;0,05708808093817882;0,9755600342431483
27,71771771771772;0,057153472467052956;0,9483246418622608
27,74774774774775;0,05726509730778701;0,9218520519827637
27,77777777777778;0,057421928867815254;0,8961220608139158
27,80780780780781;0,057623068296510246;0,8711149091812854
27,83783783783784;0,057867739526738314;0,846811275484062
27,86786786786787;0,05815527787832218;0,8231922797123433
27,8978978978979;0,05848512526620055;0,8002394768920936
27,92792792792793;0,05885682317540449;0,7779348545266923
27,95795795795796;0,05927000600759519;0,7562608297741302
27,98798798798799;0,05972439770213105;0,7352002416497461
28,01801801801802;0,06021980515713048;0,7147363487899434
28,04804804804805;0,06075611548832074;0,6948528212584836
28,07807807807808;0,061333291309364074;0,6755337358934034
28,10810810810811;0,06195136755160656;0,6567635695099199
28,13813813813814;0,06261045016401504;0,6385271894060726
28,16816816816817;0,06331071211064684;0,6208098485492131
28,1981981981982;0,06405238837085199;0,603597182718246
28,22822822822823;0,06483577814220738;0,5868751963012601
28,25825825825826;0,06566124181637374;0,5706302568482141
28,28828828828829;0,06652919696120613;0,5548490912983755
28,31831831831832;0,06744011948510022;0,5395187746192306
28,34834834834835;0,06839454239208707;0,5246267223933626
28,37837837837838;0,06939305298212257;0,5101606861114569
28,40840840840841;0,07043629299950437;0,496108744203892
28,43843843843844;0,0715249586351413;0,4824592935947305
28,46846846846847;0,07265979897892155;0,46920104384842093
28,4984984984985;0,07384161538195555;0,45632301023991817
28,52852852852853;0,07507126227544532;0,44381450499415454
28,55855855855856;0,07634964648712471;0,4316651309171284
28,58858858858859;0,07767772649535136;0,4198647753003266
28,61861861861862;0,07905651351316476;0,40840360168538814
28,64864864864865;0,0804870714243209;0,397272043364151
28,67867867867868;0,08197051642157027;0,3864607974637713
28,70870870870871;0,0835080179546072;0,37596081765076134
28,73873873873874;0,08510079920835496;0,36576330764512344
28,76876876876877;0,08675013701597227;0,3558597155302257
28,7987987987988;0,08845736294373864;0,34624172706047907
28,82882882882883;0,09022386430247394;0,33690125925441583
28,85885885885886;0,09205108489113825;0,32783045447203535
28,88888888888889;0,0939405254806622;0,31902167493057265
28,91891891891892;0,09589374352872676;0,3104674981558148
28,94894894894895;0,09791235617552517;0,30216070950858953
28,97897897897898;0,09999804077619852;0,2940942972617365
29,00900900900901;0,10215253604696191;0,28626144728518477
29,03903903903904;0,10437764247256963;0,2786555382496929
29,06906906906907;0,10667522410839039;0,2712701362713297
29,0990990990991;0,10904721030289506;0,2640989897606743
29,12912912912913;0,11149559691528413;0,25713602469713015
29,15915915915916;0,11402244770550862;0,25037533989693916
29,18918918918919;0,11662989551267902;0,2438112023989253
29,21921921921922;0,11932014447701152;0,23743804299154675
29,24924924924925;0,12209547157513059;0,2312504518487525
29,27927927927928;0,12495822837714668;0,22524317428505583
29,30930930930931;0,1279108427396551;0,2194111062900284
29,33933933933934;0,13095582079145232;0,21374929066826678
29,36936936936937;0,1340957489786881;0,20825291327576514
29,3993993993994;0,13733329606432434;0,20291729912328665
29,42942942942943;0,14067121526761067;0,19773790853258125
29,45945945945946;0,14411234652794286;0,19271033303649787
29,48948948948949;0,14765961866686134;0,1878302925663576
29,51951951951952;0,15131605175180277;0,1830936318554229
29,54954954954955;0,1550847595091116;0,17849631711424593
29,57957957957958;0,1589689520362604;0,17403443227935078
29,60960960960961;0,16297193827272882;0,1697041761326647
29,63963963963964;0,16709712853150727;0,16550185955618757
29,66966966966967;0,17134803729417603;0,16142390242756097
29,6996996996997;0,1757282861546591;0,15746683056142338
29,72972972972973;0,18024160715307871;0,153627272250895
29,75975975975976;0,18489184503776743;0,14990195673407006
29,78978978978979;0,18968296053860198;0,1462877112727327
29,81981981981982;0,19461903353151982;0,14278145862461492
29,84984984984985;0,19970426624515866;0,13938021466916078
29,87987987987988;0,2049429874656068;0,13608108490127874
29,90990990990991;0,21033965616915515;0,1328812618899512
29,93993993993994;0,21589886360469768;0,12977802500828436
29,96996996996997;0,2216253375968731;0,1267687373987323
30,0;0,22752394624637523;0,12385084394435537
